…
Let's consider the case where you're interested in test results for males from the PICU or ED.

We could write this in pseudocode (not true code, but a way of sketching out code ideas briefly) as "gender:male AND clinic:PICU OR clinic:ED".

But we aren't done yet!  We need to consider whether we need to add parentheses.  Without parenthesis, we follow the order of operations standard in boolean logic: AND is evaluated before OR.

That means that without any added parentheses, we would **really** be asking for "(gender:male AND clinic:PICU) OR clinic:ED".  In other words, I want rows that are either "males seen in the PICU" or "anyone seen in the ED".  Is that actually what I want to ask for?  No!  We need to add a set of parentheses around the "this OR that" clause, giving us "gender:male AND (clinic:PICU OR clinic:ED)".  

Without adding our helpful parentheses, non-male patients could be included, if their test was sourced from the ED.

To see what this code would look like, consider these two filter operations, which differ only by the addition of parentheses.  First, let's do our search without adding parentheses around the "or" clause.  We end up with almost 3600 rows:

``` r
> filter(covid_testing, gender == "male" & clinic_name == "picu" | clinic_name == "emergency dept")
# A tibble: 3,563 × 17
       mrn first_name last_name gender pan_day test_id clinic_name result demo_group   age drive_thru_ind ct_value
     <dbl> <chr>      <chr>     <chr>    <dbl> <chr>   <chr>       <chr>  <chr>      <dbl>          <dbl>    <dbl>
 1 5008967 rolley     karstark  male         8 covid   emergency … negat… patient      0.8              0       45
 2 5002158 ravella    frey      female       9 covid   emergency … negat… patient      0                0       45
 3 5004930 sarra      frey      female      10 covid   emergency … negat… patient      0.9              0       45
 4 5002083 weasel     tarly     female      10 covid   emergency … negat… patient     18                1       45
 5 5010468 chella     mormont   female      10 covid   emergency … negat… patient      0                0       45
 6 5000227 maege      sand      female      11 covid   emergency … negat… patient      0.9              0       45
 7 5002983 ronnel     snow      male        11 covid   emergency … negat… patient     18                0       45
 8 5006569 lanna      baelish   female      11 covid   emergency … negat… patient      1                0       45
 9 5004088 lennocks   greyjoy   male        11 covid   picu        negat… patient      4                1       45
10 5008165 arianne    clegane   female      11 covid   emergency … negat… patient      1                0       45
# … with 3,553 more rows, and 5 more variables: orderset <dbl>, payor_group <chr>, patient_class <chr>,
#   col_rec_tat <dbl>, rec_ver_tat <dbl>
```

And for comparison, let's add parentheses around the OR clause to accurately capture our true intent.  We get only around 1800 rows!  That's a big difference.

``` r
> filter(covid_testing, gender == "male" & (clinic_name == "picu" | clinic_name == "emergency dept"))
# A tibble: 1,820 × 17
       mrn first_name last_name gender pan_day test_id clinic_name result demo_group   age drive_thru_ind ct_value
     <dbl> <chr>      <chr>     <chr>    <dbl> <chr>   <chr>       <chr>  <chr>      <dbl>          <dbl>    <dbl>
 1 5008967 rolley     karstark  male         8 covid   emergency … negat… patient      0.8              0     45  
 2 5002983 ronnel     snow      male        11 covid   emergency … negat… patient     18                0     45  
 3 5004088 lennocks   greyjoy   male        11 covid   picu        negat… patient      4                1     45  
 4 5008878 hullen     stark     male        11 covid   emergency … negat… patient      1                0     45  
 5 5004652 woth       martell   male        11 covid   emergency … negat… patient     18                1     45  
 6 5010986 brenett    karstark  male        11 covid   emergency … negat… patient     18                0     45  
 7 5011560 ulwyck     stark     male        11 covid   emergency … negat… patient      1                0     45  
 8 5000140 walton     kettlebl… male        11 covid   emergency … negat… patient     13                0     45  
 9 5000902 owen       seaworth  male        12 covid   emergency … posit… patient      0.1              0     33.0
10 5002573 glendon    lannister male        12 covid   emergency … posit… patient     18                0     31.2
# … with 1,810 more rows, and 5 more variables: orderset <dbl>, payor_group <chr>, patient_class <chr>,
#   col_rec_tat <dbl>, rec_ver_tat <dbl>
```
…
